<?xml version="1.0" encoding="UTF-8" standalone="no"?>
<svg
   xmlns:dc="http://purl.org/dc/elements/1.1/"
   xmlns:cc="http://creativecommons.org/ns#"
   xmlns:rdf="http://www.w3.org/1999/02/22-rdf-syntax-ns#"
   xmlns:svg="http://www.w3.org/2000/svg"
   xmlns="http://www.w3.org/2000/svg"
   width="34px"
   height="34px"
   viewBox="0 0 34 34"
   version="1.1"
   id="svg23">
  <metadata
     id="metadata27">
    <rdf:RDF>
      <cc:Work
         rdf:about="">
        <dc:format>image/svg+xml</dc:format>
        <dc:type
           rdf:resource="http://purl.org/dc/dcmitype/StillImage" />
        <dc:title>Group</dc:title>
      </cc:Work>
    </rdf:RDF>
  </metadata>
  <!-- Generator: Sketch 51.3 (57544) - http://www.bohemiancoding.com/sketch -->
  <title
     id="title2">Group</title>
  <desc
     id="desc4">Created with Sketch.</desc>
  <defs
     id="defs6" />
  <path
     id="path910"
     d="m 4.197159,28.272221 c -0.44373,-0.082 -0.65408,-0.43694 -0.48981,-0.82637 0.18406,-0.43636 0.85389,-0.8677 1.39931,-0.90107 0.2665,-0.0163 0.32074,-0.0439 0.78241,-0.3996 1.13097,-0.87114 2.02553,-1.40185 2.56956,-1.5244 0.12137,-0.0274 0.23017,-0.0592 0.24177,-0.0707 0.0117,-0.0114 0.0567,-0.42514 0.10017,-0.91891 0.11664,-1.32401 0.21914,-2.01794 0.38754,-2.62338 0.0828,-0.29748 0.15058,-0.56283 0.15075,-0.58966 2e-4,-0.0269 -0.16403,0.20496 -0.36495,0.51511 -0.20091,0.31015 -0.38586,0.57164 -0.41101,0.58108 -0.0251,0.009 -0.0457,0.07 -0.0457,0.13464 0,0.14156 -0.23322,0.38905 -0.36664,0.38905 -0.0527,0 -0.0957,0.0212 -0.0957,0.0474 0,0.026 -0.15607,0.20223 -0.3468,0.39155 -0.34307,0.34053 -1.38009,1.07058 -2.32474,1.63661 -0.57716,0.34583 -0.92477,0.64871 -0.92477,0.80581 0,0.17402 -0.22934,0.2364 -1.41282,0.3844 -1.15008,0.1438 -1.4642,0.16239 -1.4642,0.0867 0,-0.026 0.16614,-0.19938 0.36921,-0.38522 0.28038,-0.25657 0.47293,-0.38139 0.80031,-0.51879 0.44552,-0.187 0.97645,-0.30279 1.16769,-0.25465 0.12672,0.0318 0.23156,-0.14399 0.23156,-0.38848 0,-0.12647 0.11372,-0.24484 0.80148,-0.83463 0.44082,-0.37803 0.97833,-0.82088 1.19448,-0.98412 0.40096,-0.30279 1.27029,-0.77877 1.34164,-0.73455 0.0836,0.0518 0.22,-0.18941 0.46152,-0.81609 0.13796,-0.35797 0.24074,-0.65085 0.22842,-0.65085 -0.0122,0 -0.70811,0.17523 -1.54623,0.38942 -1.7356,0.44355 -2.15764,0.49215 -2.58668,0.29792 -0.56161,-0.25426 -0.8606,-0.71864 -0.9085,-1.41105 -0.0354,-0.51143 0.0701,-0.8815 0.33849,-1.18717 0.50796,-0.57861 0.98891,-0.62362 3.29508,-0.30834 1.17214,0.16023 1.52898,0.22613 1.57633,0.29109 0.0464,0.0636 0.10879,0.0762 0.25736,0.0518 0.10784,-0.0177 0.27124,-0.0102 0.36307,0.0171 0.154,0.0453 0.16698,0.04 0.16698,-0.0686 0,-0.0647 0.0809,-0.22402 0.1798,-0.35389 0.0989,-0.12986 0.17982,-0.25721 0.17982,-0.28298 0,-0.0258 0.0686,-0.14188 0.15255,-0.25801 0.11786,-0.16315 0.1967,-0.21846 0.34678,-0.24333 0.10684,-0.0177 0.53926,-0.1 0.96097,-0.18291 0.69142,-0.13594 0.8674,-0.15075 1.79206,-0.15075 h 1.02537 l 0.16817,0.17878 c 0.16614,0.17663 0.1701,0.1778 0.32987,0.0979 0.21254,-0.10636 0.69757,-0.14782 0.9407,-0.0805 0.18973,0.0525 0.19503,0.0502 0.26594,-0.11998 0.20045,-0.48104 1.94265,-0.83459 3.04996,-0.61895 0.43285,0.0843 0.47462,0.10382 0.62454,0.2908 0.13076,0.16314 0.19371,0.20045 0.33806,0.20045 0.12728,0 0.1774,-0.0229 0.1774,-0.0813 0,-0.0447 0.0636,-0.1447 0.14128,-0.22228 0.1934,-0.19311 1.38051,-0.85654 2.22199,-1.24182 0.381477,-0.17465 0.985747,-0.50231 1.342837,-0.72816 0.357089,-0.22584 0.701498,-0.414547 0.765341,-0.419387 0.141167,-0.0102 0.409226,-0.26824 0.409226,-0.39321 0,-0.10228 0.315905,-0.571297 0.645478,-0.958477 0.220623,-0.259168 0.564274,-0.96403 1.858006,-3.8108824 0.296118,-0.651611 0.561925,-1.213732 0.5907,-1.249143 0.02878,-0.03544 0.102101,-0.0643 0.162973,-0.0643 0.09843,0 0.108465,-0.02322 0.09074,-0.209521 l -0.01994,-0.209538 -0.323437,0.03475 c -0.303593,0.03258 -0.32841,0.02712 -0.404527,-0.08941 -0.0446,-0.06829 -0.09573,-0.197452 -0.113609,-0.287114 -0.02766,-0.138582 -0.01438,-0.170701 0.08916,-0.214033 0.0669,-0.02799 0.72278,-0.122147 1.457444,-0.209252 0.734661,-0.08712 1.509151,-0.179983 1.721073,-0.206513 0.211942,-0.02652 0.552933,-0.0636 0.757789,-0.0824 0.359166,-0.03284 0.372486,-0.03024 0.372486,0.07851 0,0.388021 -1.269713,0.834961 -2.493075,0.8776 -0.02901,8.66e-4 -0.05403,0.100359 -0.05564,0.220767 -0.0019,0.120361 -0.02015,0.267756 -0.04124,0.327446 -0.0345,0.0977 -0.0086,0.116418 0.261146,0.187322 0.16472,0.04333 0.66938,0.175519 1.121499,0.293715 1.056004,0.276081 1.893735,0.551941 2.041425,0.672207 l 0.116347,0.09476 -0.106239,0.143158 c -0.14363,0.193542 -0.327807,0.237013 -0.844216,0.199287 -0.560972,-0.04098 -0.872973,-0.104822 -1.272081,-0.2602 -0.388197,-0.151137 -0.371944,-0.15035 -0.371944,-0.01819 0,0.05884 -0.06936,0.176527 -0.154117,0.261509 -0.08478,0.08499 -0.154138,0.190544 -0.154138,0.23457 0,0.0441 -0.0855,0.198706 -0.190038,0.343744 -1.973152,2.7379554 -2.266784,3.1717184 -2.379581,3.5151924 -0.152486,0.464296 -0.433496,1.024143 -0.557924,1.111543 -0.0544,0.0382 -0.124075,0.16313 -0.154816,0.27759 -0.05755,0.21432 -0.192331,0.37147 -0.416682,0.48581 -0.07063,0.036 -0.147942,0.0987 -0.171767,0.13925 -0.02382,0.0406 -0.405283,0.31645 -0.847692,0.61308 -0.442409,0.29664 -1.058683,0.75922 -1.3695,1.02797 -0.62303,0.53871 -1.626567,1.28622 -1.962237,1.46165 -0.11852,0.0619 -0.28035,0.10508 -0.35963,0.096 -0.11151,-0.0128 -0.16744,0.0173 -0.24691,0.13322 -0.2167,0.31593 -0.6228,0.48529 -0.94294,0.39323 -0.14592,-0.0419 -0.16171,-0.0355 -0.16243,0.0659 0,0.0618 -0.0177,0.13831 -0.0385,0.17012 -0.0406,0.0621 -1.05412,0.4509 -1.47626,0.5662 -0.50279,0.13733 -1.67732,0.0604 -2.26053,-0.14812 -0.13199,-0.0471 -0.23306,-0.12699 -0.28256,-0.22317 -0.0424,-0.0824 -0.0776,-0.15412 -0.0783,-0.1595 0,-0.005 -0.13382,0.034 -0.29588,0.0876 -0.20886,0.0691 -0.36938,0.0887 -0.55124,0.067 -0.25175,-0.0299 -0.25764,-0.0274 -0.31298,0.1317 -0.0358,0.10279 -0.28357,0.36873 -0.67746,0.72683 -0.76173,0.69258 -0.76513,0.69365 -2.05845,0.66155 l -0.90546,-0.0225 -0.025,0.15748 c -0.0138,0.0866 -0.0498,0.37768 -0.08,0.64684 -0.0302,0.26913 -0.11298,0.72114 -0.18388,1.00444 -0.17871,0.71387 -0.62697,2.24755 -0.68861,2.35595 -0.028,0.0491 -0.0509,0.14885 -0.0509,0.22148 0,0.27499 -0.28027,0.59051 -0.52453,0.59051 -0.037,0 -0.0954,0.0452 -0.12979,0.10037 -0.19285,0.30963 -1.13377,0.86497 -2.48671,1.46766 -0.61796,0.27529 -0.72129,0.33949 -0.87539,0.54393 -0.31801,0.42186 -1.03741,0.71196 -1.53663,0.61965 z"
     style="fill:none;stroke:#000000;stroke-width:0.2;stroke-miterlimit:4;stroke-dasharray:none" />
</svg>
