<?xml version="1.0" encoding="UTF-8" standalone="no"?>
<svg
   xmlns:dc="http://purl.org/dc/elements/1.1/"
   xmlns:cc="http://creativecommons.org/ns#"
   xmlns:rdf="http://www.w3.org/1999/02/22-rdf-syntax-ns#"
   xmlns:svg="http://www.w3.org/2000/svg"
   xmlns="http://www.w3.org/2000/svg"
   id="svg23"
   version="1.1"
   viewBox="0 0 34 34"
   height="34px"
   width="34px">
  <metadata
     id="metadata27">
    <rdf:RDF>
      <cc:Work
         rdf:about="">
        <dc:format>image/svg+xml</dc:format>
        <dc:type
           rdf:resource="http://purl.org/dc/dcmitype/StillImage" />
        <dc:title>Group</dc:title>
      </cc:Work>
    </rdf:RDF>
  </metadata>
  <!-- Generator: Sketch 51.3 (57544) - http://www.bohemiancoding.com/sketch -->
  <title
     id="title2">Group</title>
  <desc
     id="desc4">Created with Sketch.</desc>
  <defs
     id="defs6" />
  <g
     fill-rule="evenodd"
     fill="none"
     stroke-width="1"
     stroke="none"
     id="Symbols">
    <g
       fill-rule="nonzero"
       fill="#FF6161"
       transform="translate(-16.000000, -8.000000)"
       id="pinned/-alert---black-1024">
      <g
         transform="translate(16.000000, 8.000000)"
         id="Group">
        <path
           id="path908"
           d="m 3.1893882,25.759189 c -0.411096,-0.21772 -0.349078,-0.70462 0.142113,-1.11563 0.520807,-0.43579 1.506805,-0.79595 1.974009,-0.72103 0.181508,0.0291 0.200805,0.0199 0.259878,-0.12298 0.03509,-0.085 0.0849,-0.15442 0.110675,-0.15442 0.02578,0 0.06346,-0.0444 0.08382,-0.0984 0.05567,-0.14849 1.781554,-1.3821 2.668042,-1.90702 0.671961,-0.39792 1.460187,-0.68238 1.460187,-0.52699 0,0.0775 0.3340468,-0.2728 0.3400778,-0.35674 0.01657,-0.23049 1.020263,-2.748775 1.274163,-3.196936 L 11.631016,17.331961 11.38437,17.06138 c -0.135657,-0.148797 -0.292713,-0.363902 -0.349025,-0.478005 l -0.102336,-0.207457 -0.200773,0.209937 c -0.41321,0.432048 -2.4084218,1.917187 -2.5756358,1.917187 -0.03834,0 -0.06963,0.02696 -0.06963,0.05988 0,0.13118 -0.257486,0.301875 -0.475878,0.315465 -0.120388,0.0076 -0.379758,0.0744 -0.576384,0.148777 -0.530782,0.200669 -1.083017,0.316071 -2.08698,0.436152 -1.230769,0.147203 -1.687913,0.248663 -1.784153,0.395903 -0.07115,0.10895 -0.08848,0.11188 -0.290828,0.0506 -0.466456,-0.1417 -2.40228204,-0.872306 -2.40228204,-0.906644 0,-0.02004 0.208603,-0.100708 0.463555,-0.179076 0.42232704,-0.129892 0.50563604,-0.139237 0.93638904,-0.10504 0.333192,0.02642 0.577954,0.08035 0.828888,0.182791 0.393889,0.160699 0.491818,0.143568 0.584386,-0.102333 0.0471,-0.125018 0.137454,-0.162205 1.050755,-0.431916 1.539858,-0.454768 2.613485,-0.64791 2.853351,-0.513341 0.168037,0.09432 0.343763,-0.0326 0.924911,-0.667748 0.540722,-0.590981 1.380785,-1.395854 1.68828,-1.617585 l 0.144408,-0.104065 -1.173667,-0.482964 c -1.836533,-0.755743 -2.159438,-0.940288 -2.417422,-1.381647 -0.07483,-0.127942 -0.165741,-0.361044 -0.202159,-0.518018 -0.126452,-0.545382 0.09865,-1.20623 0.579319,-1.700663 0.36007,-0.370367 0.657136,-0.49439 1.123907,-0.469191 0.430849,0.02317 0.626468,0.111114 1.04193,0.468335 0.295074,0.253686 1.8657288,1.953257 1.8657288,2.018901 0,0.01668 0.09108,0.113021 0.202397,0.213793 0.111314,0.100816 0.216118,0.245878 0.232925,0.32233 0.03173,0.144791 0.271531,0.319601 0.4383,0.319601 0.05133,0 0.244079,-0.04667 0.428317,-0.10374 l 0.33499,-0.10374 0.918424,0.302459 c 1.035984,0.341194 1.466933,0.543173 2.198758,1.030578 0.697183,0.464328 0.855332,0.620782 0.855332,0.846163 0,0.159704 0.02286,0.189883 0.20674,0.273027 0.182504,0.08252 0.222649,0.085 0.342311,0.02079 0.234571,-0.125916 1.127037,-0.09075 1.816965,0.07168 0.648127,0.15248 1.118698,0.355791 1.733883,0.749072 l 0.403084,0.257693 0.566105,-0.10623 c 0.347921,-0.0653 0.637764,-0.151429 0.752056,-0.223539 0.102335,-0.06454 0.604529,-0.327376 1.116078,-0.584095 0.511538,-0.25674 1.211407,-0.653129 1.555234,-0.880892 0.343848,-0.227761 0.66593,-0.414126 0.715766,-0.414126 0.114356,0 0.275668,-0.175632 0.29829,-0.324745 0.03682,-0.242868 0.374029,-0.787125 1.349198,-2.177552 0.557248,-0.794553 1.34454,-1.926402 1.749563,-2.515219 0.609044,-0.8854818 0.757491,-1.0705689 0.858635,-1.0705689 0.101037,0 0.122273,-0.02642 0.122273,-0.151733 0,-0.08349 0.02891,-0.170033 0.06432,-0.192395 0.07472,-0.04722 -0.141289,-0.104606 -0.429443,-0.11406 -0.233054,-0.0076 -0.355359,-0.138716 -0.355359,-0.38074 0,-0.132892 0.02566,-0.193273 0.0901,-0.211661 0.324085,-0.09259 0.73332,-0.14176 0.958915,-0.115326 0.144818,0.017 0.776181,0.06606 1.40304,0.109079 1.166466,0.08003 1.694953,0.150324 1.803645,0.240084 0.104503,0.0862 -0.03065,0.289185 -0.269853,0.405301 -0.37863,0.183754 -1.390945,0.283304 -1.933303,0.190111 -0.23195,-0.03985 -0.238296,-0.03735 -0.266593,0.104606 -0.01592,0.08003 -0.08252,0.2135551 -0.147862,0.2968721 -0.06541,0.08328 -0.112233,0.190739 -0.104176,0.23871 0.0087,0.04798 -0.272409,0.5944598 -0.623393,1.2143858 -0.350964,0.619939 -1.003487,1.788855 -1.45003,2.597582 -0.446552,0.808738 -0.858689,1.536975 -0.915888,1.6183 l -0.10396,0.147845 0.123539,-0.06464 c 0.0679,-0.03562 0.658491,-0.351676 1.312324,-0.702486 0.785463,-0.421436 1.242747,-0.637828 1.347856,-0.637828 0.260885,0 0.251843,-0.09952 -0.03303,-0.363543 -0.145707,-0.135025 -0.264937,-0.265815 -0.264937,-0.290657 0,-0.12817 0.183187,-0.275561 0.432952,-0.348352 0.428987,-0.125018 0.485233,-0.110096 0.879351,0.233372 0.198153,0.172676 0.557087,0.467587 0.797669,0.655359 0.943763,0.736596 1.211125,1.021492 1.245205,1.326788 0.02329,0.208466 -0.203535,0.363231 -0.515772,0.35198 -0.366428,-0.0131 -0.966333,-0.316678 -1.350467,-0.683136 -0.297921,-0.284191 -0.329337,-0.301236 -0.454187,-0.246388 -0.07375,0.03238 -0.15241,0.08804 -0.174718,0.123493 -0.02231,0.03541 -0.473917,0.359787 -1.00353,0.720645 -0.529623,0.360849 -1.460858,1.00277 -2.069403,1.426512 -1.076637,0.749665 -1.680796,1.118266 -1.832892,1.118266 -0.04105,0 -0.188883,0.05804 -0.328537,0.128983 -0.139642,0.07093 -0.307927,0.128981 -0.373964,0.128981 -0.06607,0 -0.142977,0.02297 -0.170961,0.051 -0.02805,0.02805 -0.38579,0.119149 -0.795101,0.202423 -0.40932,0.08327 -0.804455,0.174517 -0.878073,0.202759 -0.07364,0.02816 -0.381426,0.214929 -0.684015,0.414862 -0.495273,0.327257 -0.798186,0.469271 -1.002815,0.470091 -0.03899,0 -0.159157,0.0801 -0.266972,0.17784 -0.262814,0.23803 -0.547708,0.32081 -0.873699,0.25387 -0.190539,-0.0392 -0.267578,-0.0358 -0.317642,0.0133 -0.09801,0.0963 -1.275061,0.19099 -2.006377,0.1613 -0.640396,-0.026 -1.054514,-0.12694 -1.536456,-0.37464 -0.242942,-0.1249 -0.756766,-0.576056 -0.795567,-0.698661 -0.0209,-0.06606 -0.07895,-0.100707 -0.169802,-0.101358 -0.171188,-0.0011 -0.563204,-0.175869 -0.713924,-0.317727 l -0.112721,-0.106014 -0.607778,0.132566 c -0.940211,0.205076 -1.006421,0.201784 -1.34543,-0.06681 l -0.257983,-0.204448 -0.188862,0.372132 c -0.361965,0.71324 -1.440487,2.47565 -1.530152,2.50044 -0.05426,0.0151 -0.0901,0.0747 -0.0901,0.15042 0,0.28872 -0.285283,0.58474 -0.56354,0.58474 -0.05804,0 -0.105476,0.0218 -0.105476,0.0483 0,0.16316 -0.8971328,0.80916 -1.7497258,1.25994 -0.706583,0.37356 -2.309985,1.12071 -2.385486,1.11156 -0.220342,-0.0266 -0.279513,0.0128 -0.368063,0.24518 -0.133838,0.35137 -0.403268,0.61878 -0.850731,0.84433 -0.717443,0.36164 -1.465167,0.46448 -1.859327,0.25572 z"
           style="fill:none;stroke:#000000;stroke-width:0.2;stroke-miterlimit:4;stroke-dasharray:none" />
      </g>
    </g>
  </g>
</svg>
