<?xml version="1.0" encoding="UTF-8" standalone="no"?>
<svg
   xmlns:dc="http://purl.org/dc/elements/1.1/"
   xmlns:cc="http://creativecommons.org/ns#"
   xmlns:rdf="http://www.w3.org/1999/02/22-rdf-syntax-ns#"
   xmlns:svg="http://www.w3.org/2000/svg"
   xmlns="http://www.w3.org/2000/svg"
   xmlns:sodipodi="http://sodipodi.sourceforge.net/DTD/sodipodi-0.dtd"
   xmlns:inkscape="http://www.inkscape.org/namespaces/inkscape"
   id="svg23"
   version="1.1"
   viewBox="0 0 34 34"
   height="34px"
   width="34px"
   sodipodi:docname="c5.svg"
   inkscape:version="0.92.4 5da689c313, 2019-01-14">
  <sodipodi:namedview
     pagecolor="#ffffff"
     bordercolor="#666666"
     borderopacity="1"
     objecttolerance="10"
     gridtolerance="10"
     guidetolerance="10"
     inkscape:pageopacity="0"
     inkscape:pageshadow="2"
     inkscape:window-width="753"
     inkscape:window-height="480"
     id="namedview11"
     showgrid="false"
     inkscape:zoom="55.529412"
     inkscape:cx="28.368273"
     inkscape:cy="26.364592"
     inkscape:window-x="0"
     inkscape:window-y="868"
     inkscape:window-maximized="0"
     inkscape:current-layer="Group" />
  <metadata
     id="metadata27">
    <rdf:RDF>
      <cc:Work
         rdf:about="">
        <dc:format>image/svg+xml</dc:format>
        <dc:type
           rdf:resource="http://purl.org/dc/dcmitype/StillImage" />
        <dc:title>Group</dc:title>
      </cc:Work>
    </rdf:RDF>
  </metadata>
  <!-- Generator: Sketch 51.3 (57544) - http://www.bohemiancoding.com/sketch -->
  <title
     id="title2">Group</title>
  <desc
     id="desc4">Created with Sketch.</desc>
  <defs
     id="defs6" />
  <g
     fill-rule="evenodd"
     fill="none"
     stroke-width="1"
     stroke="none"
     id="Symbols">
    <g
       fill-rule="nonzero"
       fill="#FF6161"
       transform="translate(-16.000000, -8.000000)"
       id="pinned/-alert---black-1024">
      <g
         transform="translate(16.000000, 8.000000)"
         id="Group">
        <path
           id="path910"
           d="m 4.1754866,28.290441 c -0.444472,-0.0822 -0.655187,-0.43764 -0.490638,-0.8277 0.184377,-0.43707 0.855344,-0.86909 1.401687,-0.90252 0.266951,-0.0164 0.32128,-0.044 0.783741,-0.40025 1.132896,-0.87254 2.028978,-1.4041 2.573914,-1.52686 0.12159,-0.0274 0.230575,-0.0593 0.242184,-0.0709 0.01169,-0.0115 0.05675,-0.42582 0.100387,-0.92038 0.116836,-1.32614 0.219519,-2.02119 0.388194,-2.6276 0.08284,-0.29796 0.15084,-0.56374 0.151012,-0.59062 1.96e-4,-0.0269 -0.164311,0.2053 -0.365571,0.51595 -0.201249,0.31064 -0.386516,0.57256 -0.411704,0.58201 -0.02513,0.009 -0.04581,0.0702 -0.04581,0.13485 0,0.14179 -0.233619,0.3897 -0.367272,0.3897 -0.05274,0 -0.09584,0.0213 -0.09584,0.0474 0,0.026 -0.156319,0.20256 -0.347379,0.39218 -0.343653,0.34109 -1.382432,1.07231 -2.328697,1.63925 -0.578128,0.34639 -0.92633,0.64976 -0.92633,0.8071 0,0.1743 -0.22973,0.2368 -1.415223,0.38503 -1.152031,0.14403 -1.466683,0.16266 -1.466683,0.0868 0,-0.026 0.166423,-0.19971 0.369838,-0.38583 0.280866,-0.25699 0.473733,-0.38202 0.801673,-0.51965 0.446261,-0.18728 0.978104,-0.30326 1.169673,-0.25507 0.126939,0.0319 0.231951,-0.14421 0.231951,-0.38908 0,-0.12668 0.113911,-0.24524 0.802831,-0.83598 0.441572,-0.37864 0.979999,-0.8222 1.196518,-0.9857 0.401633,-0.30327 1.27244,-0.78002 1.343913,-0.73575 0.08371,0.0519 0.220374,-0.18969 0.462298,-0.8174 0.138192,-0.35853 0.241144,-0.65188 0.228821,-0.65188 -0.01224,0 -0.709323,0.17551 -1.548867,0.39004 -1.738539,0.44427 -2.1613,0.49294 -2.591057,0.29839 -0.562565,-0.25466 -0.862068,-0.71979 -0.910051,-1.41332 -0.03541,-0.51225 0.07028,-0.88292 0.339061,-1.18908 0.508831,-0.57955 0.9906,-0.62463 3.300672,-0.30885 1.174132,0.16051 1.531573,0.22652 1.579015,0.29158 0.04646,0.0637 0.108963,0.0764 0.257788,0.052 0.108076,-0.0178 0.271705,-0.01 0.363688,0.0171 0.154261,0.0454 0.167257,0.0401 0.167257,-0.0688 0,-0.0648 0.081,-0.22439 0.180111,-0.35446 0.09909,-0.13008 0.180132,-0.25763 0.180132,-0.28344 0,-0.0259 0.06876,-0.14211 0.1528,-0.25844 0.118071,-0.1634 0.197037,-0.2188 0.347368,-0.2437 0.1069924,-0.0178 0.5401824,-0.10017 0.9626074,-0.18321 0.692592,-0.13617 0.868868,-0.151 1.795111,-0.151 h 1.027094 l 0.16847,0.17907 c 0.166413,0.17692 0.170376,0.17809 0.33042,0.0981 0.212902,-0.10656 0.698764,-0.14807 0.942303,-0.0807 0.190052,0.0525 0.195358,0.0502 0.266386,-0.12018 0.200795,-0.48181 1.945951,-0.83592 3.055131,-0.61993 0.433591,0.0845 0.475434,0.10396 0.625603,0.29126 0.130979,0.1634 0.194048,0.20078 0.338639,0.20078 0.127504,0 0.177696,-0.023 0.177696,-0.0814 0,-0.0448 0.06368,-0.14494 0.141527,-0.22265 0.193723,-0.19342 1.382854,-0.85791 2.225755,-1.24381 0.382129,-0.17494 0.987427,-0.50313 1.345126,-0.72933 0.357688,-0.2262 0.702684,-0.41523 0.766631,-0.42006 0.141408,-0.01 0.409927,-0.26867 0.409927,-0.39385 0,-0.10244 0.31644,-0.57222 0.646569,-0.96002 0.221001,-0.25959 0.565229,-0.96557 1.861158,-3.8170197 0.296622,-0.65266 0.56288,-1.21568 0.591706,-1.25116 0.0288,-0.0354 0.102228,-0.0644 0.163251,-0.0644 0.09854,0 0.108649,-0.0232 0.09086,-0.20986 l -0.02004,-0.2098702 -0.323987,0.0349 c -0.304105,0.0327 -0.328968,0.0272 -0.405207,-0.0896 -0.04472,-0.0683 -0.09594,-0.19777 -0.113803,-0.28757 -0.02773,-0.13881 -0.01441,-0.17098 0.08934,-0.21438 0.06704,-0.028 0.724007,-0.12234 1.459926,-0.20959 0.735908,-0.0873 1.511711,-0.18028 1.723985,-0.20685 0.212306,-0.0265 0.55388,-0.0637 0.759083,-0.0825 0.359767,-0.0329 0.373119,-0.0302 0.373119,0.0786 0,0.38863 -1.271877,0.8363 -2.497308,0.879 -0.02902,0.001 -0.05415,0.10049 -0.05578,0.22113 -0.0022,0.1205502 -0.02014,0.2681802 -0.04137,0.3279802 -0.03455,0.0979 -0.0087,0.1166 0.26159,0.18762 0.165005,0.0434 0.670522,0.17579 1.123408,0.29419 1.057797,0.27652 1.89695,0.55283 2.044888,0.67328 l 0.116544,0.0949 -0.106451,0.14338 c -0.143878,0.19386 -0.328363,0.2374 -0.845652,0.19962 -0.561926,-0.041 -0.874457,-0.10504 -1.274238,-0.26063 -0.388855,-0.15137 -0.372578,-0.15058 -0.372578,-0.0182 0,0.0589 -0.06953,0.1768 -0.154371,0.26194 -0.0849,0.0851 -0.154401,0.19085 -0.154401,0.23494 0,0.0442 -0.08566,0.19902 -0.190367,0.34429 -1.976501,2.7423697 -2.270632,3.1768397 -2.383613,3.5208597 -0.152745,0.46503 -0.434239,1.0258 -0.558873,1.11333 -0.05447,0.0382 -0.124287,0.1634 -0.155085,0.27804 -0.05761,0.21467 -0.192651,0.37206 -0.417379,0.48659 -0.07071,0.0361 -0.148196,0.0989 -0.172064,0.13947 -0.02382,0.0406 -0.405964,0.31696 -0.849128,0.61408 -0.443163,0.29711 -1.06048,0.76044 -1.37183,1.02962 -0.624087,0.53957 -1.629327,1.2883 -1.965563,1.464 -0.118731,0.062 -0.280833,0.10526 -0.360244,0.0962 -0.111703,-0.0129 -0.167722,0.0173 -0.247338,0.13343 -0.217061,0.31644 -0.623848,0.48607 -0.944533,0.39387 -0.146172,-0.042 -0.161983,-0.0356 -0.162698,0.066 0,0.0618 -0.01776,0.13853 -0.03855,0.17039 -0.04071,0.0623 -1.05591,0.45163 -1.478769,0.56712 -0.503654,0.13755 -1.680169,0.0604 -2.264361,-0.14837 -0.132224,-0.0472 -0.233466,-0.12719 -0.283053,-0.22352 -0.04246,-0.0825 -0.07776,-0.15437 -0.07841,-0.15976 0,-0.006 -0.134054,0.0341 -0.296384,0.0878 -0.209209,0.0692 -0.370012,0.0888 -0.55218,0.0671 -0.252179,-0.03 -0.258071,-0.0274 -0.313505,0.13191 -0.03585,0.10299 -0.284061,0.36933 -0.678611,0.72801 -0.763025,0.69369 -0.766426,0.69477 -2.061954,0.66261 l -0.906988,-0.0225 -0.02513,0.15773 c -0.01376,0.0867 -0.04992,0.37829 -0.08013,0.64789 -0.03032,0.26957 -0.113165,0.7223 -0.184193,1.00607 -0.178997,0.71502 -0.6280394,2.25115 -0.6897774,2.35973 -0.02805,0.0493 -0.0509,0.1491 -0.0509,0.22184 0,0.27543 -0.280746,0.59147 -0.52542,0.59147 -0.03704,0 -0.09562,0.0453 -0.130006,0.10049 -0.193181,0.31011 -1.1357,0.86634 -2.49093,1.47 -0.619007,0.27574 -0.722534,0.34004 -0.876882,0.54482 -0.318541,0.42254 -1.039169,0.71309 -1.539239,0.62065 z"
           style="fill:none;stroke:#000000;stroke-width:0.2;stroke-miterlimit:4;stroke-dasharray:none"
           inkscape:connector-curvature="0"
           sodipodi:nodetypes="cccccccccccsssccscscccsccccsccccccccscscccscccccccssccccscscscccccccccsccccccccccscsccccccccccccccccccccccccccccssccccc" />
      </g>
    </g>
  </g>
</svg>
